module gitlab.com/alisson-paula/gitlab-discord-go

go 1.20

require (
	github.com/bwmarrin/discordgo v0.27.1
	github.com/joho/godotenv v1.5.1
	github.com/xanzy/go-gitlab v0.81.0
)

require (
	github.com/golang/protobuf v1.5.3 // indirect
	github.com/google/go-querystring v1.1.0 // indirect
	github.com/gorilla/websocket v1.4.2 // indirect
	github.com/hashicorp/go-cleanhttp v0.5.2 // indirect
	github.com/hashicorp/go-retryablehttp v0.7.2 // indirect
	golang.org/x/crypto v0.0.0-20210421170649-83a5a9bb288b // indirect
	golang.org/x/net v0.8.0 // indirect
	golang.org/x/oauth2 v0.6.0 // indirect
	golang.org/x/sys v0.6.0 // indirect
	golang.org/x/time v0.3.0 // indirect
	google.golang.org/appengine v1.6.7 // indirect
	google.golang.org/protobuf v1.29.0 // indirect
)
